{"response":{"status":"ok","userTier":"developer","total":1953655,"startIndex":1,"pageSize":10,"currentPage":1,"pages":195366,"orderBy":"newest","results":[{"id":"politics/live/2017/may/25/general-election-2017-campaign-resumes-may-nato-summit-politics-live","type":"liveblog","sectionId":"politics","sectionName":"Politics","webPublicationDate":"2017-05-25T15:46:37Z","webTitle":"General election 2017: Ukip says May must bear 'some responsibility' for Manchester attack – politics live","webUrl":"https://www.theguardian.com/politics/live/2017/may/25/general-election-2017-campaign-resumes-may-nato-summit-politics-live","apiUrl":"https://content.guardianapis.com/politics/live/2017/may/25/general-election-2017-campaign-resumes-may-nato-summit-politics-live","isHosted":false},{"id":"politics/2017/may/25/theresa-may-anti-extremism-drive-tories-manchester-attack","type":"article","sectionId":"politics","sectionName":"Politics","webPublicationDate":"2017-05-25T15:44:28Z","webTitle":"Theresa May plans anti-extremism drive if Tories win election","webUrl":"https://www.theguardian.com/politics/2017/may/25/theresa-may-anti-extremism-drive-tories-manchester-attack","apiUrl":"https://content.guardianapis.com/politics/2017/may/25/theresa-may-anti-extremism-drive-tories-manchester-attack","isHosted":false},{"id":"commentisfree/2017/may/25/poor-avocados-life-luxuries-rich-people","type":"article","sectionId":"commentisfree","sectionName":"Opinion","webPublicationDate":"2017-05-25T15:42:18Z","webTitle":"So what if the poor buy avocados – everybody deserves a little luxury | Emma Brockes","webUrl":"https://www.theguardian.com/commentisfree/2017/may/25/poor-avocados-life-luxuries-rich-people","apiUrl":"https://content.guardianapis.com/commentisfree/2017/may/25/poor-avocados-life-luxuries-rich-people","isHosted":false},{"id":"tv-and-radio/tvandradioblog/2017/may/25/the-animals-podcast-simon-callow-alan-cumming","type":"article","sectionId":"tv-and-radio","sectionName":"Television & radio","webPublicationDate":"2017-05-25T15:39:18Z","webTitle":"The Animals: Simon Callow and Alan Cumming bring the story of 'the gay first couple' to life","webUrl":"https://www.theguardian.com/tv-and-radio/tvandradioblog/2017/may/25/the-animals-podcast-simon-callow-alan-cumming","apiUrl":"https://content.guardianapis.com/tv-and-radio/tvandradioblog/2017/may/25/the-animals-podcast-simon-callow-alan-cumming","isHosted":false},{"id":"film/2017/may/25/12-jours-review-raymond-depardon-documentary-psychiatric-hospital-judge","type":"article","sectionId":"film","sectionName":"Film","webPublicationDate":"2017-05-25T15:37:15Z","webTitle":"12 Jours review – a devastating glimpse into broken souls","webUrl":"https://www.theguardian.com/film/2017/may/25/12-jours-review-raymond-depardon-documentary-psychiatric-hospital-judge","apiUrl":"https://content.guardianapis.com/film/2017/may/25/12-jours-review-raymond-depardon-documentary-psychiatric-hospital-judge","isHosted":false},{"id":"society/2017/may/25/uk-gamblers-fobt-dcms-losses","type":"article","sectionId":"society","sectionName":"Society","webPublicationDate":"2017-05-25T15:25:57Z","webTitle":"UK gamblers lose record £13.8bn as industry braces for FOBT crackdown","webUrl":"https://www.theguardian.com/society/2017/may/25/uk-gamblers-fobt-dcms-losses","apiUrl":"https://content.guardianapis.com/society/2017/may/25/uk-gamblers-fobt-dcms-losses","isHosted":false},{"id":"commentisfree/belief/2017/may/25/the-parish-is-the-perfect-scale-for-moral-community","type":"article","sectionId":"commentisfree","sectionName":"Opinion","webPublicationDate":"2017-05-25T15:23:21Z","webTitle":"The parish is the perfect scale for moral community | Giles Fraser: Loose canon","webUrl":"https://www.theguardian.com/commentisfree/belief/2017/may/25/the-parish-is-the-perfect-scale-for-moral-community","apiUrl":"https://content.guardianapis.com/commentisfree/belief/2017/may/25/the-parish-is-the-perfect-scale-for-moral-community","isHosted":false},{"id":"uk-news/live/2017/may/25/manchester-attack-police-raids-terror-network-live-updates","type":"liveblog","sectionId":"uk-news","sectionName":"UK news","webPublicationDate":"2017-05-25T15:22:23Z","webTitle":"Manchester attack: police chief pays tribute to officer Elaine McIver - latest","webUrl":"https://www.theguardian.com/uk-news/live/2017/may/25/manchester-attack-police-raids-terror-network-live-updates","apiUrl":"https://content.guardianapis.com/uk-news/live/2017/may/25/manchester-attack-police-raids-terror-network-live-updates","isHosted":false},{"id":"business/live/2017/may/25/oil-price-as-opec-ministers-meeting-output-deal-business-live","type":"liveblog","sectionId":"business","sectionName":"Business","webPublicationDate":"2017-05-25T15:17:19Z","webTitle":"UK lags behind Europe as growth slows; Opec agrees supply cuts deal  - business live","webUrl":"https://www.theguardian.com/business/live/2017/may/25/oil-price-as-opec-ministers-meeting-output-deal-business-live","apiUrl":"https://content.guardianapis.com/business/live/2017/may/25/oil-price-as-opec-ministers-meeting-output-deal-business-live","isHosted":false},{"id":"tv-and-radio/2017/may/25/the-handmaids-tale-on-tv-too-disturbing-even-for-margaret-atwood","type":"article","sectionId":"tv-and-radio","sectionName":"Television & radio","webPublicationDate":"2017-05-25T15:06:13Z","webTitle":"The Handmaid's Tale on TV: too disturbing even for Margaret Atwood","webUrl":"https://www.theguardian.com/tv-and-radio/2017/may/25/the-handmaids-tale-on-tv-too-disturbing-even-for-margaret-atwood","apiUrl":"https://content.guardianapis.com/tv-and-radio/2017/may/25/the-handmaids-tale-on-tv-too-disturbing-even-for-margaret-atwood","isHosted":false}]}}
